…
We have observed a sample of size *n* = 1000. We show some observations
from this sample (data frame) with:

``` r
print(x)
#> # A tibble: 1,000 × 1
#>          x
#>      <dbl>
#>  1 0.283  
#>  2 0.186  
#>  3 1.73   
#>  4 0.618  
#>  5 0.00966
#>  6 3.57   
#>  7 2.42   
#>  8 0.0681 
#>  9 0.421  
#> 10 1.03   
#> # … with 990 more rows
```
…
