Algebraic maximum likelihood estimators • algebraic.mle
…
In what follows, to demonstrate the algebraic.mle R package, we consider a random sample from exponentially distributed random variable Xi ∼ EXP (λ=1) for i = 1, …, n.

We generate an observation from this random sample with:

library(stats)
library(tidyverse)
n <- 1000
rate <- 1
x <- tibble(x=stats::rexp(n,rate))

We have observed a sample of size n = 1000. We show some observations from this sample (data frame) with:

print(x)
#> # A tibble: 1,000 × 1
#>         x
#>     <dbl>
#>  1 0.0262
#>  2 1.34  
#>  3 0.296 
#>  4 2.30  
#>  5 0.490 
#>  6 1.60  
#>  7 0.659 
#>  8 1.45  
#>  9 1.08  
#> 10 0.520 
#> # … with 990 more rows
…
