Statistics and characteristics of the MLE • algebraic.mle
…
#>  [93,] -0.0336340  0.0688032 -0.063913 -0.0506828
#>  [94,] -0.0967541  0.0208973  0.083018 -0.0793773
#>  [95,] -0.0708959 -0.0446939 -0.066442  0.0196782
#>  [96,] -0.1126599  0.0107139 -0.013827 -0.0527241
#>  [97,] -0.0298684  0.0161802 -0.033966 -0.0309772
#>  [98,]  0.0486113  0.0663810 -0.002099  0.0522629
#>  [99,]  0.0059665  0.1159373  0.044068  0.0313260
#> [100,] -0.1466448 -0.0274904  0.067202 -0.0212693
#> Warning: The `x` argument of `as_tibble.matrix()` must have unique column names if
#> `.name_repair` is omitted as of tibble 2.0.0.
#> ℹ Using compatibility `.name_repair`.
#> This warning is displayed once every 8 hours.
#> Call `lifecycle::last_lifecycle_warnings()` to see where this warning was
#> generated.
#> # A tibble: 2,400 × 2
#>    n       bias
#>    <chr>  <dbl>
#>  1 V1     0.284
#>  2 V1     0.506
#>  3 V1     0.353
#>  4 V1    -0.578
#>  5 V1     0.184
#>  6 V1    -0.191
#>  7 V1    -0.303
#>  8 V1     0.787
#>  9 V1     0.645
#> 10 V1     0.257
#> # ℹ 2,390 more rows
…
