…
A few elements from the sample are given by:

    #> # A tibble: 58 × 1
    #>    lifetime
    #>       <dbl>
    #>  1     3.46
    #>  2     2.64
    #>  3     2.58
    #>  4     2.55
    #>  5     2.03
    #>  6     2.47
    #>  7     4.02
    #>  8     3.13
    #>  9     2.44
    #> 10     2.75
    #> # ℹ 48 more rows
…
